…
``` r
# head(cases_df)
# skim(cases_df)
```

## DHB summaries

``` r
cases_by_dhb_df <- cases_df %>% 
  count(report_date, dhb, case_status)

cases_by_dhb_df
```

    ## # A tibble: 3,572 x 4
    ##    report_date dhb               case_status     n
    ##    <date>      <chr>             <chr>       <int>
    ##  1 2020-02-26  Auckland          Confirmed       1
    ##  2 2020-03-02  Waitemata         Confirmed       1
    ##  3 2020-03-04  Counties Manukau  Confirmed       1
    ##  4 2020-03-04  Waitemata         Confirmed       1
    ##  5 2020-03-05  Counties Manukau  Probable        1
    ##  6 2020-03-05  Waitemata         Probable        1
    ##  7 2020-03-06  Counties Manukau  Confirmed       1
    ##  8 2020-03-12  Counties Manukau  Confirmed       1
    ##  9 2020-03-13  Southern          Confirmed       1
    ## 10 2020-03-14  Capital and Coast Confirmed       1
    ## # ... with 3,562 more rows
…
